%!PS-Adobe-3.0 EPSF-3.0 
%%BoundingBox: 0 0 288 115
%%Pages: 0
%%Creator: LibreOffice 4.3
%%Title: none
%%CreationDate: none
%%LanguageLevel: 2
%%EndComments
%%BeginProlog
%%BeginResource: procset SDRes-Prolog 1.0 0
/b4_inc_state save def
/dict_count countdictstack def
/op_count count 1 sub def
userdict begin
0 setgray 0 setlinecap 1 setlinewidth 0 setlinejoin 10 setmiterlimit[] 0 setdash newpath
/languagelevel where {pop languagelevel 1 ne {false setstrokeadjust false setoverprint} if} if
/bdef {bind def} bind def
/c {setgray} bdef
/l {neg lineto} bdef
/rl {neg rlineto} bdef
/lc {setlinecap} bdef
/lj {setlinejoin} bdef
/lw {setlinewidth} bdef
/ml {setmiterlimit} bdef
/ld {setdash} bdef
/m {neg moveto} bdef
/ct {6 2 roll neg 6 2 roll neg 6 2 roll neg curveto} bdef
/r {rotate} bdef
/t {neg translate} bdef
/s {scale} bdef
/sw {show} bdef
/gs {gsave} bdef
/gr {grestore} bdef
/f {findfont dup length dict begin
{1 index /FID ne {def} {pop pop} ifelse} forall /Encoding ISOLatin1Encoding def
currentdict end /NFont exch definefont pop /NFont findfont} bdef
/p {closepath} bdef
/sf {scalefont setfont} bdef
/ef {eofill}bdef
/pc {closepath stroke}bdef
/ps {stroke}bdef
/pum {matrix currentmatrix}bdef
/pom {setmatrix}bdef
/bs {/aString exch def /nXOfs exch def /nWidth exch def currentpoint nXOfs 0 rmoveto pum nWidth aString stringwidth pop div 1 scale aString show pom moveto} bdef
%%EndResource
%%EndProlog
%%BeginSetup
%%EndSetup
%%Page: 1 1
%%BeginPageSetup
%%EndPageSetup
pum
0.02834 0.02829 s 
0 -4064 t
/tm matrix currentmatrix def
gs
0 0 m 10159 0 l 10159 4063 l 0 4063 l 0 0 l eoclip newpath
gs
0 0 m 10159 0 l 10159 4063 l 0 4063 l 0 0 l eoclip newpath
0.996 c 0 0 m  10159 0 l  10159 4063 l  0 4063 l  0 0 l  p ef
pum
742 2507 t
0.000 c 169 -127 m  293 -12 528 42 725 42 ct 1224 42 1422 -243 1422 -531 ct 1422 -864 1196 -1021 866 -1143 ct 
776 -1177 l  587 -1247 429 -1368 429 -1538 ct 429 -1744 553 -1896 790 -1896 ct 
1032 -1896 1168 -1758 1213 -1473 ct 1300 -1473 l  1300 -1871 l  1205 -1947 1013 -1995 821 -1995 ct 
477 -1995 172 -1823 172 -1450 ct 172 -1154 409 -999 705 -895 ct 756 -875 l  880 -827 1148 -697 1148 -446 ct 
1148 -203 993 -57 742 -57 ct 477 -57 302 -263 231 -579 ct 141 -579 l  169 -127 l 
p ef
2862 -1697 m  2862 -1856 2870 -1862 3133 -1862 ct 3133 -1952 l  2329 -1952 l 
2329 -1862 l  2577 -1862 2583 -1856 2583 -1697 ct 2583 -255 l  2583 -96 2577 -90 2329 -90 ct 
2329 0 l  3793 0 l  3827 -505 l  3742 -505 l  3686 -138 3530 -102 3234 -102 ct 
3093 -102 2992 -102 2932 -124 ct 2873 -150 2862 -198 2862 -337 ct 2862 -1697 l 
p ef
6370 0 m  6370 -82 l  6206 -96 6175 -104 6124 -251 ct 5526 -1952 l  5317 -1952 l 
5021 -1115 l  4934 -868 4815 -529 4717 -271 ct 4657 -119 4632 -85 4454 -85 ct 
4454 0 l  5075 0 l  5075 -82 l  4928 -96 l  4843 -104 4835 -133 4858 -209 ct 
4906 -378 4965 -553 5030 -753 ct 5662 -753 l  5851 -214 l  5879 -133 5865 -102 5774 -93 ct 
5647 -82 l  5647 0 l  6370 0 l  p
5628 -860 m  5066 -860 l  5157 -1142 5255 -1419 5340 -1667 ct 5348 -1667 l 
5628 -860 l  p ef
7665 -801 m  7826 -801 l  7955 -801 8082 -812 8187 -838 ct 8404 -894 8652 -1046 8652 -1399 ct 
8652 -1613 8559 -1760 8432 -1839 ct 8297 -1924 8116 -1952 7919 -1952 ct 7132 -1952 l 
7132 -1862 l  7380 -1862 7386 -1856 7386 -1697 ct 7386 -255 l  7386 -96 7380 -90 7132 -90 ct 
7132 0 l  7964 0 l  7964 -90 l  7673 -90 7665 -96 7665 -256 ct 7665 -801 l 
p
7665 -1749 m  7665 -1828 7696 -1853 7879 -1853 ct 8170 -1853 8348 -1687 8348 -1379 ct 
8348 -1027 8116 -900 7874 -900 ct 7707 -900 7665 -905 7665 -1010 ct 7665 -1749 l 
p ef
pom
pum
742 3614 t
259 -337 m  241 -337 l  235 -319 l  208 -336 179 -343 142 -343 ct 109 -343 83 -335 63 -319 ct 
42 -303 29 -278 29 -255 ct 29 -235 38 -215 51 -201 ct 66 -186 92 -174 131 -164 ct 
197 -148 l  246 -136 262 -121 262 -91 ct 262 -49 224 -18 173 -18 ct 116 -18 67 -53 32 -119 ct 
14 -113 l  46 0 l  64 0 l  73 -25 l  104 -4 136 6 176 6 ct 252 6 313 -41 313 -100 ct 
313 -118 308 -137 301 -148 ct 286 -172 261 -185 208 -198 ct 146 -213 l  99 -225 79 -240 79 -266 ct 
79 -296 111 -319 152 -319 ct 199 -319 239 -294 273 -241 ct 289 -247 l  259 -337 l 
p ef
495 -240 m  424 -240 l  424 -330 l  405 -330 l  406 -268 384 -241 336 -241 ct 
336 -224 l  377 -224 l  377 -58 l  377 -34 384 -19 400 -9 ct 413 -1 431 4 448 4 ct 
477 4 500 -7 517 -31 ct 504 -41 l  487 -22 476 -16 461 -16 ct 436 -16 424 -36 424 -81 ct 
424 -224 l  495 -224 l  495 -240 l  p ef
744 0 m  834 0 l  834 -15 l  822 -16 l  800 -19 791 -30 791 -57 ct 791 -240 l 
774 -240 l  749 -234 739 -233 700 -230 ct 700 -215 l  712 -214 l  737 -212 744 -203 744 -173 ct 
744 -63 l  711 -34 682 -20 658 -20 ct 627 -20 613 -37 613 -74 ct 613 -240 l 
596 -240 l  571 -233 560 -231 522 -231 ct 522 -215 l  534 -214 l  559 -212 566 -203 566 -173 ct 
566 -70 l  566 -45 571 -32 582 -19 ct 595 -3 614 4 640 4 ct 675 4 702 -8 744 -42 ct 
744 0 l  p ef
1056 -218 m  1029 -236 1004 -244 974 -244 ct 912 -244 865 -190 865 -119 ct 865 -89 876 -56 892 -34 ct 
910 -10 940 4 970 4 ct 986 4 1003 0 1020 -7 ct 1034 -13 1041 -18 1056 -34 ct 1056 -1 l 
1138 -1 l  1138 -15 l  1132 -16 l  1110 -21 1102 -31 1102 -57 ct 1102 -355 l 
1083 -355 l  1058 -345 1047 -342 1013 -338 ct 1013 -323 l  1024 -322 l  1050 -319 1056 -310 1056 -266 ct 
1056 -218 l  p
1056 -59 m  1033 -32 1012 -20 985 -20 ct 960 -20 939 -33 929 -56 ct 920 -73 916 -98 916 -120 ct 
916 -143 920 -166 928 -184 ct 940 -209 960 -222 988 -222 ct 1012 -222 1029 -215 1056 -192 ct 
1056 -59 l  p ef
1377 -66 m  1359 -33 1336 -18 1306 -18 ct 1271 -18 1245 -36 1232 -69 ct 1224 -86 1222 -108 1222 -143 ct 
1393 -143 l  1393 -172 1386 -190 1370 -209 ct 1350 -232 1320 -245 1286 -245 ct 
1218 -245 1169 -194 1169 -123 ct 1169 -89 1182 -56 1202 -34 ct 1224 -8 1254 4 1291 4 ct 
1336 4 1368 -15 1393 -58 ct 1377 -66 l  p
1223 -163 m  1227 -184 1230 -193 1238 -203 ct 1248 -218 1264 -225 1284 -225 ct 
1310 -225 1328 -213 1338 -188 ct 1340 -183 1342 -170 1342 -164 ct 1342 -163 l 
1223 -163 l  p ef
1506 -240 m  1489 -240 l  1459 -234 1442 -232 1415 -230 ct 1415 -215 l  1427 -214 l 
1452 -212 1459 -202 1459 -173 ct 1459 -57 l  1459 -30 1450 -18 1429 -16 ct 1416 -15 l 
1416 0 l  1549 0 l  1549 -15 l  1537 -16 l  1515 -18 1506 -30 1506 -57 ct 
1506 -179 l  1537 -206 1566 -220 1593 -220 ct 1620 -220 1635 -203 1635 -171 ct 
1635 -57 l  1635 -30 1626 -18 1605 -16 ct 1592 -15 l  1592 0 l  1725 0 l 
1725 -15 l  1713 -16 l  1691 -18 1682 -30 1682 -57 ct 1682 -179 l  1682 -220 1654 -244 1608 -244 ct 
1570 -244 1541 -232 1506 -201 ct 1506 -240 l  p ef
1900 -240 m  1829 -240 l  1829 -330 l  1810 -330 l  1811 -268 1789 -241 1741 -241 ct 
1741 -224 l  1782 -224 l  1782 -58 l  1782 -34 1789 -19 1805 -9 ct 1818 -1 1836 4 1853 4 ct 
1882 4 1905 -7 1922 -31 ct 1909 -41 l  1892 -22 1881 -16 1866 -16 ct 1841 -16 1829 -36 1829 -81 ct 
1829 -224 l  1900 -224 l  1900 -240 l  p ef
2384 -106 m  2370 -112 l  2348 -80 2335 -66 2316 -52 ct 2288 -31 2255 -19 2225 -19 ct 
2209 -19 2195 -24 2189 -31 ct 2185 -36 2183 -46 2183 -61 ct 2183 -265 l  2183 -305 2190 -317 2215 -320 ct 
2231 -321 l  2231 -337 l  2089 -337 l  2089 -321 l  2102 -320 l  2127 -316 2134 -306 2134 -265 ct 
2134 -71 l  2134 -31 2127 -20 2102 -17 ct 2089 -15 l  2089 0 l  2345 0 l 
2384 -106 l  p ef
2554 -141 m  2495 -134 2493 -134 2471 -129 ct 2416 -115 2388 -90 2388 -57 ct 
2388 -22 2420 4 2464 4 ct 2497 4 2521 -6 2554 -34 ct 2564 -7 2581 4 2610 4 ct 2630 4 2647 -2 2660 -15 ct 
2651 -28 l  2643 -21 2637 -18 2629 -18 ct 2618 -18 2610 -24 2606 -32 ct 2602 -39 2601 -45 2601 -67 ct 
2601 -172 l  2601 -201 2593 -217 2573 -228 ct 2555 -238 2529 -245 2507 -245 ct 
2485 -245 2459 -239 2439 -230 ct 2416 -220 2399 -199 2399 -182 ct 2399 -170 2410 -160 2423 -160 ct 
2437 -160 2448 -172 2448 -185 ct 2447 -199 l  2447 -214 2470 -225 2497 -225 ct 
2532 -225 2554 -208 2554 -180 ct 2554 -141 l  p
2554 -56 m  2527 -30 2506 -20 2481 -20 ct 2458 -20 2439 -39 2439 -62 ct 2439 -95 2480 -117 2554 -124 ct 
2554 -56 l  p ef
2743 -355 m  2723 -355 l  2698 -345 2687 -342 2653 -338 ct 2653 -323 l  2664 -322 l 
2690 -319 2696 -310 2696 -266 ct 2696 0 l  2724 0 l  2735 -29 l  2768 -4 2790 4 2822 4 ct 
2892 4 2941 -48 2941 -123 ct 2941 -194 2894 -245 2829 -245 ct 2795 -245 2770 -235 2743 -209 ct 
2743 -355 l  p
2743 -182 m  2768 -211 2787 -221 2816 -221 ct 2862 -221 2891 -183 2891 -122 ct 
2891 -59 2859 -20 2810 -20 ct 2784 -20 2761 -29 2743 -47 ct 2743 -182 l  p ef
3097 -245 m  3062 -245 3031 -233 3012 -213 ct 2991 -191 2977 -154 2977 -120 ct 
2977 -45 3025 4 3099 4 ct 3170 4 3218 -45 3218 -119 ct 3218 -151 3207 -183 3189 -206 ct 
3168 -231 3135 -245 3097 -245 ct p
3097 -225 m  3141 -225 3168 -184 3168 -116 ct 3168 -53 3142 -16 3099 -16 ct 
3054 -16 3028 -54 3028 -121 ct 3028 -184 3055 -225 3097 -225 ct p ef
3335 -240 m  3318 -240 l  3288 -234 3271 -232 3244 -230 ct 3244 -215 l  3256 -214 l 
3281 -212 3288 -203 3288 -173 ct 3288 -57 l  3288 -30 3279 -18 3258 -16 ct 3245 -15 l 
3245 0 l  3378 0 l  3378 -15 l  3366 -16 l  3344 -18 3335 -30 3335 -57 ct 
3335 -178 l  3353 -198 3366 -205 3380 -205 ct 3389 -205 3392 -204 3401 -198 ct 
3410 -192 3417 -189 3426 -189 ct 3443 -189 3454 -201 3454 -216 ct 3454 -233 3440 -244 3418 -244 ct 
3407 -244 3395 -242 3383 -236 ct 3372 -231 3369 -229 3345 -209 ct 3344 -207 3340 -204 3335 -200 ct 
3335 -240 l  p ef
3799 -337 m  3753 -337 l  3668 -119 l  3635 -34 3627 -23 3594 -16 ct 3589 -15 l 
3589 0 l  3721 0 l  3721 -15 l  3703 -18 3695 -20 3689 -23 ct 3682 -28 3677 -37 3677 -46 ct 
3677 -53 3680 -67 3686 -83 ct 3702 -125 l  3829 -125 l  3854 -61 l  3857 -53 3859 -44 3859 -40 ct 
3859 -33 3855 -27 3849 -23 ct 3845 -19 3838 -18 3820 -15 ct 3820 0 l  3959 0 l 
3959 -15 l  3927 -20 3921 -26 3903 -72 ct 3799 -337 l  p
3710 -146 m  3764 -295 l  3820 -146 l  3710 -146 l  p ef
4172 -63 m  4145 -28 4124 -16 4094 -16 ct 4044 -16 4010 -57 4010 -118 ct 4010 -146 4014 -170 4024 -189 ct 
4035 -213 4054 -225 4082 -225 ct 4107 -225 4130 -210 4130 -192 ct 4130 -175 l 
4130 -161 4141 -150 4155 -150 ct 4169 -150 4180 -162 4180 -177 ct 4180 -193 4170 -210 4152 -223 ct 
4132 -238 4109 -245 4080 -245 ct 4044 -245 4015 -234 3994 -212 ct 3972 -189 3959 -155 3959 -120 ct 
3959 -46 4008 4 4081 4 ct 4128 4 4161 -14 4187 -54 ct 4172 -63 l  p ef
4364 -240 m  4293 -240 l  4293 -330 l  4274 -330 l  4275 -268 4253 -241 4205 -241 ct 
4205 -224 l  4246 -224 l  4246 -58 l  4246 -34 4253 -19 4269 -9 ct 4282 -1 4300 4 4317 4 ct 
4346 4 4369 -7 4386 -31 ct 4373 -41 l  4356 -22 4345 -16 4330 -16 ct 4305 -16 4293 -36 4293 -81 ct 
4293 -224 l  4364 -224 l  4364 -240 l  p ef
4482 -240 m  4465 -240 l  4435 -234 4418 -232 4392 -230 ct 4392 -215 l  4402 -214 l 
4428 -211 4435 -202 4435 -173 ct 4435 -57 l  4435 -30 4426 -18 4404 -16 ct 4392 -15 l 
4392 0 l  4524 0 l  4524 -15 l  4512 -16 l  4490 -18 4482 -30 4482 -57 ct 
4482 -240 l  p
4459 -323 m  4442 -323 4429 -310 4429 -293 ct 4429 -277 4442 -263 4458 -263 ct 
4475 -263 4488 -277 4488 -293 ct 4488 -309 4475 -323 4459 -323 ct p ef
4668 -245 m  4633 -245 4602 -233 4583 -213 ct 4562 -191 4548 -154 4548 -120 ct 
4548 -45 4596 4 4670 4 ct 4741 4 4789 -45 4789 -119 ct 4789 -151 4778 -183 4760 -206 ct 
4739 -231 4706 -245 4668 -245 ct p
4668 -225 m  4712 -225 4739 -184 4739 -116 ct 4739 -53 4713 -16 4670 -16 ct 
4625 -16 4599 -54 4599 -121 ct 4599 -184 4626 -225 4668 -225 ct p ef
4906 -240 m  4889 -240 l  4859 -234 4842 -232 4815 -230 ct 4815 -215 l  4827 -214 l 
4852 -212 4859 -202 4859 -173 ct 4859 -57 l  4859 -30 4850 -18 4829 -16 ct 4816 -15 l 
4816 0 l  4949 0 l  4949 -15 l  4937 -16 l  4915 -18 4906 -30 4906 -57 ct 
4906 -179 l  4937 -206 4966 -220 4993 -220 ct 5020 -220 5035 -203 5035 -171 ct 
5035 -57 l  5035 -30 5026 -18 5005 -16 ct 4992 -15 l  4992 0 l  5125 0 l 
5125 -15 l  5113 -16 l  5091 -18 5082 -30 5082 -57 ct 5082 -179 l  5082 -220 5054 -244 5008 -244 ct 
4970 -244 4941 -232 4906 -201 ct 4906 -240 l  p ef
5396 -144 m  5465 -144 l  5498 -144 5528 -151 5547 -163 ct 5572 -179 5589 -210 5589 -242 ct 
5589 -301 5542 -337 5466 -337 ct 5302 -337 l  5302 -321 l  5315 -320 l  5340 -317 5347 -306 5347 -266 ct 
5347 -72 l  5347 -31 5340 -21 5315 -17 ct 5302 -16 l  5302 -1 l  5446 -1 l 
5446 -16 l  5428 -17 l  5403 -19 5396 -32 5396 -72 ct 5396 -144 l  p
5396 -165 m  5396 -284 l  5396 -311 5405 -316 5452 -316 ct 5486 -316 5506 -310 5520 -294 ct 
5533 -280 5539 -262 5539 -241 ct 5539 -220 5533 -202 5520 -188 ct 5505 -172 5487 -165 5458 -165 ct 
5396 -165 l  p ef
5693 -240 m  5676 -240 l  5646 -234 5629 -232 5602 -230 ct 5602 -215 l  5614 -214 l 
5639 -212 5646 -203 5646 -173 ct 5646 -57 l  5646 -30 5637 -18 5616 -16 ct 5603 -15 l 
5603 0 l  5736 0 l  5736 -15 l  5724 -16 l  5702 -18 5693 -30 5693 -57 ct 
5693 -178 l  5711 -198 5724 -205 5738 -205 ct 5747 -205 5750 -204 5759 -198 ct 
5768 -192 5775 -189 5784 -189 ct 5801 -189 5812 -201 5812 -216 ct 5812 -233 5798 -244 5776 -244 ct 
5765 -244 5753 -242 5741 -236 ct 5730 -231 5727 -229 5703 -209 ct 5702 -207 5698 -204 5693 -200 ct 
5693 -240 l  p ef
5946 -245 m  5911 -245 5880 -233 5861 -213 ct 5840 -191 5826 -154 5826 -120 ct 
5826 -45 5874 4 5948 4 ct 6019 4 6067 -45 6067 -119 ct 6067 -151 6056 -183 6038 -206 ct 
6017 -231 5984 -245 5946 -245 ct p
5946 -225 m  5990 -225 6017 -184 6017 -116 ct 6017 -53 5991 -16 5948 -16 ct 
5903 -16 5877 -54 5877 -121 ct 5877 -184 5904 -225 5946 -225 ct p ef
6183 -240 m  6166 -240 l  6136 -234 6119 -232 6092 -230 ct 6092 -215 l  6104 -214 l 
6129 -212 6136 -202 6136 -173 ct 6136 -2 l  6136 63 6135 75 6124 87 ct 6119 93 6110 97 6101 97 ct 
6089 97 6084 94 6074 82 ct 6065 72 6060 69 6052 69 ct 6040 69 6029 78 6029 89 ct 
6029 107 6050 119 6082 119 ct 6109 119 6134 111 6154 95 ct 6176 77 6183 59 6183 23 ct 
6183 -240 l  p
6159 -323 m  6142 -323 6129 -310 6129 -293 ct 6129 -277 6142 -263 6158 -263 ct 
6175 -263 6189 -277 6189 -293 ct 6189 -309 6175 -323 6159 -323 ct p ef
6457 -66 m  6439 -33 6416 -18 6386 -18 ct 6351 -18 6325 -36 6312 -69 ct 6304 -86 6302 -108 6302 -143 ct 
6473 -143 l  6473 -172 6466 -190 6450 -209 ct 6430 -232 6400 -245 6366 -245 ct 
6298 -245 6249 -194 6249 -123 ct 6249 -89 6262 -56 6282 -34 ct 6304 -8 6334 4 6371 4 ct 
6416 4 6448 -15 6473 -58 ct 6457 -66 l  p
6303 -163 m  6307 -184 6310 -193 6318 -203 ct 6328 -218 6344 -225 6364 -225 ct 
6390 -225 6408 -213 6418 -188 ct 6420 -183 6422 -170 6422 -164 ct 6422 -163 l 
6303 -163 l  p ef
6716 -63 m  6689 -28 6668 -16 6638 -16 ct 6588 -16 6554 -57 6554 -118 ct 6554 -146 6558 -170 6568 -189 ct 
6579 -213 6598 -225 6626 -225 ct 6651 -225 6674 -210 6674 -192 ct 6674 -175 l 
6674 -161 6685 -150 6699 -150 ct 6713 -150 6724 -162 6724 -177 ct 6724 -193 6714 -210 6696 -223 ct 
6676 -238 6653 -245 6624 -245 ct 6588 -245 6559 -234 6538 -212 ct 6516 -189 6503 -155 6503 -120 ct 
6503 -46 6552 4 6625 4 ct 6672 4 6705 -14 6731 -54 ct 6716 -63 l  p ef
6908 -240 m  6837 -240 l  6837 -330 l  6818 -330 l  6819 -268 6797 -241 6749 -241 ct 
6749 -224 l  6790 -224 l  6790 -58 l  6790 -34 6797 -19 6813 -9 ct 6826 -1 6844 4 6861 4 ct 
6890 4 6913 -7 6930 -31 ct 6917 -41 l  6900 -22 6889 -16 6874 -16 ct 6849 -16 6837 -36 6837 -81 ct 
6837 -224 l  6908 -224 l  6908 -240 l  p ef
7265 -141 m  7206 -134 7204 -134 7182 -129 ct 7127 -115 7099 -90 7099 -57 ct 
7099 -22 7131 4 7175 4 ct 7208 4 7232 -6 7265 -34 ct 7275 -7 7292 4 7321 4 ct 7341 4 7358 -2 7371 -15 ct 
7362 -28 l  7354 -21 7348 -18 7340 -18 ct 7329 -18 7321 -24 7317 -32 ct 7313 -39 7312 -45 7312 -67 ct 
7312 -172 l  7312 -201 7304 -217 7284 -228 ct 7266 -238 7240 -245 7218 -245 ct 
7196 -245 7170 -239 7150 -230 ct 7127 -220 7110 -199 7110 -182 ct 7110 -170 7121 -160 7134 -160 ct 
7148 -160 7159 -172 7159 -185 ct 7158 -199 l  7158 -214 7181 -225 7208 -225 ct 
7243 -225 7265 -208 7265 -180 ct 7265 -141 l  p
7265 -56 m  7238 -30 7217 -20 7192 -20 ct 7169 -20 7150 -39 7150 -62 ct 7150 -95 7191 -117 7265 -124 ct 
7265 -56 l  p ef
7535 -240 m  7464 -240 l  7464 -330 l  7445 -330 l  7446 -268 7424 -241 7376 -241 ct 
7376 -224 l  7417 -224 l  7417 -58 l  7417 -34 7424 -19 7440 -9 ct 7453 -1 7471 4 7488 4 ct 
7517 4 7540 -7 7557 -31 ct 7544 -41 l  7527 -22 7516 -16 7501 -16 ct 7476 -16 7464 -36 7464 -81 ct 
7464 -224 l  7535 -224 l  7535 -240 l  p ef
8036 -266 m  8036 -306 8043 -317 8068 -320 ct 8081 -322 l  8081 -337 l  7960 -337 l 
7960 -322 l  7976 -320 l  8001 -318 8008 -306 8008 -266 ct 8008 -135 l  8008 -81 8004 -62 7990 -45 ct 
7975 -28 7946 -18 7910 -18 ct 7869 -18 7840 -31 7827 -54 ct 7818 -70 7815 -89 7815 -134 ct 
7815 -266 l  7815 -306 7822 -318 7847 -320 ct 7865 -322 l  7865 -337 l  7721 -337 l 
7721 -322 l  7734 -320 l  7759 -317 7766 -306 7766 -266 ct 7766 -100 l  7766 -59 7777 -37 7809 -16 ct 
7834 0 7861 6 7902 6 ct 7958 6 7992 -5 8016 -32 ct 8030 -48 8036 -68 8036 -101 ct 
8036 -266 l  p ef
8402 -332 m  8386 -332 l  8375 -311 l  8346 -334 8316 -343 8274 -343 ct 8234 -343 8188 -321 8158 -289 ct 
8128 -257 8112 -213 8112 -167 ct 8112 -68 8186 6 8286 6 ct 8349 6 8400 -22 8436 -79 ct 
8415 -91 l  8401 -70 8391 -59 8374 -47 ct 8351 -29 8319 -18 8293 -18 ct 8263 -18 8227 -34 8206 -58 ct 
8183 -83 8170 -123 8170 -167 ct 8170 -255 8218 -319 8283 -319 ct 8320 -319 8356 -299 8379 -265 ct 
8389 -251 8395 -241 8410 -213 ct 8426 -213 l  8402 -332 l  p ef
8741 -337 m  8469 -337 l  8469 -321 l  8482 -320 l  8507 -317 8514 -306 8514 -266 ct 
8514 -72 l  8514 -31 8507 -21 8482 -17 ct 8469 -16 l  8469 -1 l  8611 -1 l 
8611 -16 l  8595 -17 l  8570 -20 8563 -32 8563 -71 ct 8563 -169 l  8595 -169 l 
8620 -169 8635 -163 8645 -150 ct 8653 -141 8656 -132 8659 -106 ct 8674 -106 l 
8674 -252 l  8659 -252 l  8657 -230 8655 -221 8650 -212 ct 8640 -196 8627 -190 8595 -190 ct 
8563 -190 l  8563 -267 l  8563 -289 8565 -299 8571 -305 ct 8578 -312 8596 -316 8618 -316 ct 
8678 -316 8718 -296 8761 -244 ct 8776 -252 l  8741 -337 l  p ef
pom
gr
gs
0 0 m 10159 0 l 10159 4063 l 0 4063 l 0 0 l eoclip newpath
gr
gr
0 4064 t 
pom
count op_count sub {pop} repeat countdictstack dict_count sub {end} repeat b4_inc_state restore
%%PageTrailer
%%Trailer
%%EOF
