%!PS-Adobe-3.0 EPSF-3.0
%%Creator: cairo 1.14.0 (http://cairographics.org)
%%CreationDate: Fri Feb 26 16:24:41 2016
%%Pages: 1
%%DocumentData: Clean7Bit
%%LanguageLevel: 2
%%BoundingBox: 0 -1 310 310
%%EndComments
%%BeginProlog
save
50 dict begin
/q { gsave } bind def
/Q { grestore } bind def
/cm { 6 array astore concat } bind def
/w { setlinewidth } bind def
/J { setlinecap } bind def
/j { setlinejoin } bind def
/M { setmiterlimit } bind def
/d { setdash } bind def
/m { moveto } bind def
/l { lineto } bind def
/c { curveto } bind def
/h { closepath } bind def
/re { exch dup neg 3 1 roll 5 3 roll moveto 0 rlineto
      0 exch rlineto 0 rlineto closepath } bind def
/S { stroke } bind def
/f { fill } bind def
/f* { eofill } bind def
/n { newpath } bind def
/W { clip } bind def
/W* { eoclip } bind def
/BT { } bind def
/ET { } bind def
/pdfmark where { pop globaldict /?pdfmark /exec load put }
    { globaldict begin /?pdfmark /pop load def /pdfmark
    /cleartomark load def end } ifelse
/BDC { mark 3 1 roll /BDC pdfmark } bind def
/EMC { mark /EMC pdfmark } bind def
/cairo_store_point { /cairo_point_y exch def /cairo_point_x exch def } def
/Tj { show currentpoint cairo_store_point } bind def
/TJ {
  {
    dup
    type /stringtype eq
    { show } { -0.001 mul 0 cairo_font_matrix dtransform rmoveto } ifelse
  } forall
  currentpoint cairo_store_point
} bind def
/cairo_selectfont { cairo_font_matrix aload pop pop pop 0 0 6 array astore
    cairo_font exch selectfont cairo_point_x cairo_point_y moveto } bind def
/Tf { pop /cairo_font exch def /cairo_font_matrix where
      { pop cairo_selectfont } if } bind def
/Td { matrix translate cairo_font_matrix matrix concatmatrix dup
      /cairo_font_matrix exch def dup 4 get exch 5 get cairo_store_point
      /cairo_font where { pop cairo_selectfont } if } bind def
/Tm { 2 copy 8 2 roll 6 array astore /cairo_font_matrix exch def
      cairo_store_point /cairo_font where { pop cairo_selectfont } if } bind def
/g { setgray } bind def
/rg { setrgbcolor } bind def
/d1 { setcachedevice } bind def
%%EndProlog
%%BeginSetup
%%EndSetup
%%Page: 1 1
%%BeginPageSetup
%%PageBoundingBox: 0 -1 310 310
%%EndPageSetup
q 0 -1 310 311 rectclip q
1 0 0 rg
309.715 154.859 m 309.715 69.331 240.383 -0.001 154.855 -0.001 c 69.332
 -0.001 0 69.331 0 154.859 c 0 240.382 69.332 309.714 154.855 309.714 c 
240.383 309.714 309.715 240.382 309.715 154.859 c h
309.715 154.859 m f*
53.863 104.792 m 25.898 160.253 48.188 227.886 103.648 255.851 c 159.109
 283.816 226.742 261.527 254.707 206.066 c 282.676 150.605 260.383 82.972
 204.922 55.007 c 149.461 27.039 81.828 49.331 53.863 104.792 c h
53.863 104.792 m f*
1 g
4.28596 w
0 J
0 j
[] 0.0 d
4 M q -1 -0.504238 -0.504238 1 0 309.714294 cm
39.439 -185.035 m 39.438 -129.575 -5.523 -84.613 -60.983 -84.613 c -116.444
 -84.614 -161.406 -129.574 -161.405 -185.035 c -161.408 -240.497 -116.444
 -285.458 -60.983 -285.457 c -5.521 -285.46 39.439 -240.496 39.439 -185.035
 c h
39.439 -185.035 m S Q
37.016 97.687 m 38.156 98.316 38.797 98.917 39.324 99.882 c 40.094 101.3
 40.109 103.097 39.402 104.695 c 38.199 107.417 35.156 108.597 32.41 107.382
 c 31.16 106.831 30.285 105.878 29.852 104.636 c 29.562 103.8 29.512 103.191
 29.613 101.468 c 29.715 99.8 29.711 99.749 29.68 99.492 c 29.574 98.785
 29.23 98.289 28.676 98.042 c 27.773 97.644 26.859 97.999 26.453 98.921 
c 26.035 99.863 26.355 100.691 27.344 101.226 c 26.059 104.136 l 24.938 
103.566 24.277 102.956 23.789 102.007 c 23.129 100.734 23.113 99.16 23.738
 97.749 c 24.816 95.308 27.59 94.183 29.988 95.246 c 31.895 96.085 32.852
 97.855 32.711 100.218 c 32.574 102.581 32.582 102.734 32.723 103.359 c 
32.891 103.972 33.316 104.453 33.949 104.734 c 35.035 105.214 36.164 104.706
 36.699 103.499 c 37.25 102.249 36.934 101.3 35.719 100.617 c 37.016 97.687
 l f
0.96 w
q 1 0 0 -1 0 309.714294 cm
37.016 212.027 m 38.156 211.398 38.797 210.797 39.324 209.832 c 40.094 
208.414 40.109 206.617 39.402 205.02 c 38.199 202.297 35.156 201.117 32.41
 202.332 c 31.16 202.883 30.285 203.836 29.852 205.078 c 29.562 205.914 
29.512 206.523 29.613 208.246 c 29.715 209.914 29.711 209.965 29.68 210.223
 c 29.574 210.93 29.23 211.426 28.676 211.672 c 27.773 212.07 26.859 211.715
 26.453 210.793 c 26.035 209.852 26.355 209.023 27.344 208.488 c 26.059 
205.578 l 24.938 206.148 24.277 206.758 23.789 207.707 c 23.129 208.98 23.113
 210.555 23.738 211.965 c 24.816 214.406 27.59 215.531 29.988 214.469 c 
31.895 213.629 32.852 211.859 32.711 209.496 c 32.574 207.133 32.582 206.98
 32.723 206.355 c 32.891 205.742 33.316 205.262 33.949 204.98 c 35.035 204.5
 36.164 205.008 36.699 206.215 c 37.25 207.465 36.934 208.414 35.719 209.098
 c 37.016 212.027 l S Q
34.156 117.749 m 33.27 120.687 l 20.23 116.749 l 19.344 119.687 l 16.535
 118.839 l 19.195 110.027 l 22.004 110.874 l 21.117 113.812 l 34.156 117.749
 l f
q 1 0 0 -1 0 309.714294 cm
34.156 191.965 m 33.27 189.027 l 20.23 192.965 l 19.344 190.027 l 16.535
 190.875 l 19.195 199.688 l 22.004 198.84 l 21.117 195.902 l 34.156 191.965
 l S Q
14.461 127.585 m 24.816 129.226 l 26.562 129.503 27.629 129.945 28.523 
130.722 c 29.879 131.91 30.527 133.828 30.227 135.73 c 29.945 137.499 28.883
 139.058 27.422 139.824 c 26.234 140.453 24.969 140.57 23.066 140.269 c 
12.711 138.628 l 13.191 135.597 l 23.547 137.238 l 24.762 137.429 25.285
 137.421 25.867 137.195 c 26.617 136.882 27.164 136.152 27.301 135.292 c
 27.441 134.406 27.148 133.542 26.527 133.015 c 26.047 132.621 25.551 132.453
 24.336 132.257 c 13.98 130.617 l 14.461 127.585 l f
q 1 0 0 -1 0 309.714294 cm
14.461 182.129 m 24.816 180.488 l 26.562 180.211 27.629 179.77 28.523 178.992
 c 29.879 177.805 30.527 175.887 30.227 173.984 c 29.945 172.215 28.883 
170.656 27.422 169.891 c 26.234 169.262 24.969 169.145 23.066 169.445 c 
12.711 171.086 l 13.191 174.117 l 23.547 172.477 l 24.762 172.285 25.285
 172.293 25.867 172.52 c 26.617 172.832 27.164 173.562 27.301 174.422 c 
27.441 175.309 27.148 176.172 26.527 176.699 c 26.047 177.094 25.551 177.262
 24.336 177.457 c 13.98 179.098 l 14.461 182.129 l S Q
28.344 149.914 m 28.371 153.765 l 28.391 156.273 28.152 157.777 27.492 
159.124 c 26.254 161.687 23.531 163.206 20.195 163.23 c 17.059 163.253 14.453
 161.972 13.047 159.675 c 12.254 158.378 11.836 156.414 11.82 153.812 c 
11.793 150.027 l 28.344 149.914 l 25.434 153.003 m 14.746 153.078 l 14.754
 153.683 l 14.766 155.628 14.953 156.683 15.453 157.64 c 16.27 159.203 18.047
 160.156 20.172 160.14 c 22.168 160.124 23.93 159.195 24.727 157.71 c 25.234
 156.789 25.449 155.511 25.438 153.675 c 25.434 153.003 l f
q 1 0 0 -1 0 309.714294 cm
28.344 159.801 m 28.371 155.949 l 28.391 153.441 28.152 151.938 27.492 
150.59 c 26.254 148.027 23.531 146.508 20.195 146.484 c 17.059 146.461 14.453
 147.742 13.047 150.039 c 12.254 151.336 11.836 153.301 11.82 155.902 c 
11.793 159.688 l 28.344 159.801 l 25.434 156.711 m 14.746 156.637 l 14.754
 156.031 l 14.766 154.086 14.953 153.031 15.453 152.074 c 16.27 150.512 
18.047 149.559 20.172 149.574 c 22.168 149.59 23.93 150.52 24.727 152.004
 c 25.234 152.926 25.449 154.203 25.438 156.039 c 25.434 156.711 l S Q
29.281 170.906 m 30.68 179.687 l 27.781 180.152 l 26.867 174.398 l 23.062
 175.007 l 23.938 180.515 l 21.039 180.976 l 20.164 175.468 l 16.312 176.081
 l 17.23 181.831 l 14.332 182.292 l 12.934 173.511 l 29.281 170.906 l f
q 1 0 0 -1 0 309.714294 cm
29.281 138.809 m 30.68 130.027 l 27.781 129.562 l 26.867 135.316 l 23.062
 134.707 l 23.938 129.199 l 21.039 128.738 l 20.164 134.246 l 16.312 133.633
 l 17.23 127.883 l 14.332 127.422 l 12.934 136.203 l 29.281 138.809 l S Q
32.422 187.667 m 33.363 190.589 l 21.918 194.285 l 35.492 197.175 l 36.543
 200.437 l 20.793 205.523 l 19.848 202.601 l 31.316 198.898 l 17.742 196.081
 l 16.668 192.753 l 32.422 187.667 l f
q 1 0 0 -1 0 309.714294 cm
32.422 122.047 m 33.363 119.125 l 21.918 115.43 l 35.492 112.539 l 36.543
 109.277 l 20.793 104.191 l 19.848 107.113 l 31.316 110.816 l 17.742 113.633
 l 16.668 116.961 l 32.422 122.047 l S Q
40.695 209.699 m 42.047 212.453 l 29.824 218.46 l 31.18 221.214 l 28.547
 222.507 l 24.484 214.246 l 27.117 212.953 l 28.473 215.706 l 40.695 209.699
 l f
q 1 0 0 -1 0 309.714294 cm
40.695 100.016 m 42.047 97.262 l 29.824 91.254 l 31.18 88.5 l 28.547 87.207
 l 24.484 95.469 l 27.117 96.762 l 28.473 94.008 l 40.695 100.016 l S Q
109.961 273.3 m 117.645 275.964 l 116.684 278.738 l 111.898 277.078 l 107.438
 289.945 l 104.539 288.941 l 109.961 273.3 l f
q 1 0 0 -1 0 309.714294 cm
109.961 36.414 m 117.645 33.75 l 116.684 30.977 l 111.898 32.637 l 107.438
 19.77 l 104.539 20.773 l 109.961 36.414 l S Q
123.07 277.667 m 126.395 278.296 l 127.41 282.839 l 133.199 283.929 l 135.73
 280.05 l 139.055 280.675 l 129.168 295.66 l 126.793 295.214 l 123.07 277.667
 l 127.969 285.929 m 128.777 291.187 l 131.445 286.585 l 127.969 285.929
 l f
q 1 0 0 -1 0 309.714294 cm
123.07 32.047 m 126.395 31.418 l 127.41 26.875 l 133.199 25.785 l 135.73
 29.664 l 139.055 29.039 l 129.168 14.055 l 126.793 14.5 l 123.07 32.047
 l 127.969 23.785 m 128.777 18.527 l 131.445 23.129 l 127.969 23.785 l S Q
146.258 281.175 m 150.668 281.281 l 152.504 281.324 153.844 281.644 154.836
 282.296 c 156.18 283.16 156.93 284.656 156.891 286.355 c 156.867 287.386
 156.551 288.386 156.02 289.046 c 155.535 289.664 155.059 289.964 153.973
 290.386 c 155.277 291.113 155.77 291.999 155.734 293.542 c 155.695 295.089
 154.973 296.371 153.766 297.105 c 152.766 297.706 151.734 297.863 149.27
 297.804 c 145.867 297.722 l 146.258 281.175 l 149.258 284.183 m 149.156
 288.414 l 150.613 288.449 l 152.738 288.499 153.762 287.828 153.797 286.351
 c 153.832 284.917 152.93 284.269 150.777 284.218 c 149.258 284.183 l 149.086
 291.414 m 149.004 294.796 l 150.258 294.824 l 151.848 294.863 152.645 294.343
 152.672 293.203 c 152.699 292.015 151.93 291.48 150.07 291.437 c 149.086
 291.414 l f
q 1 0 0 -1 0 309.714294 cm
146.258 28.539 m 150.668 28.434 l 152.504 28.391 153.844 28.07 154.836 
27.418 c 156.18 26.555 156.93 25.059 156.891 23.359 c 156.867 22.328 156.551
 21.328 156.02 20.668 c 155.535 20.051 155.059 19.75 153.973 19.328 c 155.277
 18.602 155.77 17.715 155.734 16.172 c 155.695 14.625 154.973 13.344 153.766
 12.609 c 152.766 12.008 151.734 11.852 149.27 11.91 c 145.867 11.992 l 
146.258 28.539 l 149.258 25.531 m 149.156 21.301 l 150.613 21.266 l 152.738
 21.215 153.762 21.887 153.797 23.363 c 153.832 24.797 152.93 25.445 150.777
 25.496 c 149.258 25.531 l 149.086 18.301 m 149.004 14.918 l 150.258 14.891
 l 151.848 14.852 152.645 15.371 152.672 16.512 c 152.699 17.699 151.93 
18.234 150.07 18.277 c 149.086 18.301 l S Q
175.176 296.621 m 170.301 297.343 165.984 294.206 165.273 289.417 c 164.57
 284.699 167.824 280.39 172.633 279.675 c 177.398 278.968 181.625 282.121
 182.336 286.906 c 183.031 291.581 179.848 295.925 175.176 296.621 c 174.695
 293.703 m 177.73 293.253 179.738 290.46 179.273 287.316 c 178.805 284.171
 176.148 282.14 173.047 282.601 c 169.945 283.062 167.867 285.863 168.328
 288.964 c 168.801 292.132 171.551 294.171 174.695 293.703 c f
q 1 0 0 -1 0 309.714294 cm
175.176 13.094 m 170.301 12.371 165.984 15.508 165.273 20.297 c 164.57 
25.016 167.824 29.324 172.633 30.039 c 177.398 30.746 181.625 27.594 182.336
 22.809 c 183.031 18.133 179.848 13.789 175.176 13.094 c 174.695 16.012 
m 177.73 16.461 179.738 19.254 179.273 22.398 c 178.805 25.543 176.148 27.574
 173.047 27.113 c 169.945 26.652 167.867 23.852 168.328 20.75 c 168.801 
17.582 171.551 15.543 174.695 16.012 c S Q
188.887 276.558 m 191.805 275.597 l 193.785 281.621 l 195.934 274.238 l
 199.527 273.058 l 197.184 280.265 l 198.492 280.164 199.18 280.246 200.051
 280.597 c 201.414 281.16 202.383 282.234 202.891 283.789 c 203.418 285.382
 203.289 286.933 202.508 288.206 c 201.773 289.414 200.742 290.085 198.594
 290.789 c 194.059 292.281 l 188.887 276.558 l 194.504 283.812 m 196.059
 288.535 l 197.355 288.109 l 198.719 287.66 199.414 287.265 199.75 286.706
 c 200.129 286.136 200.18 285.433 199.926 284.667 c 199.383 283.007 198.188
 282.601 195.93 283.343 c 194.504 283.812 l f
q 1 0 0 -1 0 309.714294 cm
188.887 33.156 m 191.805 34.117 l 193.785 28.094 l 195.934 35.477 l 199.527
 36.656 l 197.184 29.449 l 198.492 29.551 199.18 29.469 200.051 29.117 c
 201.414 28.555 202.383 27.48 202.891 25.926 c 203.418 24.332 203.289 22.781
 202.508 21.508 c 201.773 20.301 200.742 19.629 198.594 18.926 c 194.059
 17.434 l 188.887 33.156 l 194.504 25.902 m 196.059 21.18 l 197.355 21.605
 l 198.719 22.055 199.414 22.449 199.75 23.008 c 200.129 23.578 200.18 24.281
 199.926 25.047 c 199.383 26.707 198.188 27.113 195.93 26.371 c 194.504 
25.902 l S Q
269.617 206.511 m 270.789 203.339 l 275.438 203.097 l 277.477 197.57 l 
274.078 194.429 l 275.246 191.253 l 288.375 203.499 l 287.535 205.769 l 
269.617 206.511 l 278.578 203.062 m 283.898 203.136 l 279.805 199.742 l 
278.578 203.062 l f
q 1 0 0 -1 0 309.714294 cm
269.617 103.203 m 270.789 106.375 l 275.438 106.617 l 277.477 112.145 l
 274.078 115.285 l 275.246 118.461 l 288.375 106.215 l 287.535 103.945 l
 269.617 103.203 l 278.578 106.652 m 283.898 106.578 l 279.805 109.973 l
 278.578 106.652 l S Q
283.695 173.07 m 282.074 174.152 281.344 175.21 281.074 176.777 c 280.551
 179.777 282.641 182.687 285.684 183.214 c 287.008 183.445 288.512 183.183
 289.625 182.511 c 290.969 181.722 291.832 180.414 292.117 178.761 c 292.449
 176.863 292.051 175.476 290.809 174.121 c 291.395 170.746 l 292.695 171.632
 293.367 172.339 294.082 173.597 c 295.035 175.312 295.363 177.347 295.02
 179.331 c 294.219 183.945 289.793 187.062 285.18 186.265 c 280.477 185.449
 277.344 180.972 278.172 176.206 c 278.75 172.871 281.109 170.281 284.309
 169.519 c 283.695 173.07 l f
q 1 0 0 -1 0 309.714294 cm
283.695 136.645 m 282.074 135.562 281.344 134.504 281.074 132.938 c 280.551
 129.938 282.641 127.027 285.684 126.5 c 287.008 126.27 288.512 126.531 
289.625 127.203 c 290.969 127.992 291.832 129.301 292.117 130.953 c 292.449
 132.852 292.051 134.238 290.809 135.594 c 291.395 138.969 l 292.695 138.082
 293.367 137.375 294.082 136.117 c 295.035 134.402 295.363 132.367 295.02
 130.383 c 294.219 125.77 289.793 122.652 285.18 123.449 c 280.477 124.266
 277.344 128.742 278.172 133.508 c 278.75 136.844 281.109 139.434 284.309
 140.195 c 283.695 136.645 l S Q
280.125 159.706 m 280.191 156.636 l 293.805 156.933 l 293.871 153.863 l
 296.805 153.925 l 296.605 163.132 l 293.672 163.066 l 293.738 159.999 l
 280.125 159.706 l f
q 1 0 0 -1 0 309.714294 cm
280.125 150.008 m 280.191 153.078 l 293.805 152.781 l 293.871 155.852 l
 296.805 155.789 l 296.605 146.582 l 293.672 146.648 l 293.738 149.715 l
 280.125 150.008 l S Q
279.93 147.335 m 279.691 144.277 l 296.191 142.988 l 296.434 146.046 l 
279.93 147.335 l f
q 1 0 0 -1 0 309.714294 cm
279.93 162.379 m 279.691 165.438 l 296.191 166.727 l 296.434 163.668 l 
279.93 162.379 l S Q
293.625 124.535 m 294.695 129.343 291.867 133.874 287.145 134.921 c 282.488
 135.956 277.957 133.019 276.902 128.273 c 275.855 123.57 278.703 119.128
 283.426 118.081 c 288.039 117.054 292.602 119.921 293.625 124.535 c 290.75
 125.218 m 290.082 122.222 287.156 120.417 284.051 121.109 c 280.945 121.796
 279.113 124.593 279.793 127.652 c 280.473 130.714 283.414 132.585 286.473
 131.906 c 289.602 131.21 291.438 128.324 290.75 125.218 c f
q 1 0 0 -1 0 309.714294 cm
293.625 185.18 m 294.695 180.371 291.867 175.84 287.145 174.793 c 282.488
 173.758 277.957 176.695 276.902 181.441 c 275.855 186.145 278.703 190.586
 283.426 191.633 c 288.039 192.66 292.602 189.793 293.625 185.18 c 290.75
 184.496 m 290.082 187.492 287.156 189.297 284.051 188.605 c 280.945 187.918
 279.113 185.121 279.793 182.062 c 280.473 179 283.414 177.129 286.473 177.809
 c 289.602 178.504 291.438 181.391 290.75 184.496 c S Q
272.645 112.05 m 271.434 109.226 l 282.492 104.492 l 268.711 102.867 l 
267.359 99.714 l 282.578 93.199 l 283.785 96.019 l 272.707 100.765 l 286.484
 102.32 l 287.859 105.535 l 272.645 112.05 l f
q 1 0 0 -1 0 309.714294 cm
272.645 197.664 m 271.434 200.488 l 282.492 205.223 l 268.711 206.848 l
 267.359 210 l 282.578 216.516 l 283.785 213.695 l 272.707 208.949 l 286.484
 207.395 l 287.859 204.18 l 272.645 197.664 l S Q
215.953 45.593 m 213.223 44.191 l 216.094 38.589 l 215.219 38.14 l 213.125
 37.066 212.25 36.417 211.688 35.499 c 210.871 34.148 210.898 32.277 211.77
 30.581 c 212.637 28.886 214.07 27.859 215.742 27.738 c 216.836 27.667 217.906
 27.988 219.859 28.992 c 223.508 30.859 l 215.953 45.593 l 217.434 35.98
 m 219.438 32.074 l 218.52 31.601 l 217.621 31.14 217.203 30.976 216.715
 30.851 c 215.805 30.664 214.969 31.117 214.496 32.031 c 214.129 32.749 
214.164 33.472 214.578 34.085 c 214.883 34.519 215.578 35.027 216.637 35.57
 c 217.434 35.98 l f
q 1 0 0 -1 0 309.714294 cm
215.953 264.121 m 213.223 265.523 l 216.094 271.125 l 215.219 271.574 l
 213.125 272.648 212.25 273.297 211.688 274.215 c 210.871 275.566 210.898
 277.438 211.77 279.133 c 212.637 280.828 214.07 281.855 215.742 281.977
 c 216.836 282.047 217.906 281.727 219.859 280.723 c 223.508 278.855 l 215.953
 264.121 l 217.434 273.734 m 219.438 277.641 l 218.52 278.113 l 217.621 
278.574 217.203 278.738 216.715 278.863 c 215.805 279.051 214.969 278.598
 214.496 277.684 c 214.129 276.965 214.164 276.242 214.578 275.629 c 214.883
 275.195 215.578 274.688 216.637 274.145 c 217.434 273.734 l S Q
199.867 37.984 m 196.965 36.984 l 199.031 30.992 l 192.859 35.566 l 189.277
 34.335 l 195.508 30.011 l 194.402 29.3 193.902 28.82 193.422 28.015 c 192.676
 26.738 192.559 25.3 193.09 23.753 c 193.637 22.167 194.676 21.007 196.07
 20.468 c 197.387 19.953 198.609 20.042 200.75 20.777 c 205.262 22.331 l
 199.867 37.984 l 199.785 28.808 m 201.402 24.105 l 200.109 23.664 l 198.754
 23.195 197.965 23.089 197.359 23.328 c 196.711 23.558 196.246 24.081 195.984
 24.847 c 195.414 26.499 196.121 27.546 198.363 28.32 c 199.785 28.808 l
 f
q 1 0 0 -1 0 309.714294 cm
199.867 271.73 m 196.965 272.73 l 199.031 278.723 l 192.859 274.148 l 189.277
 275.379 l 195.508 279.703 l 194.402 280.414 193.902 280.895 193.422 281.699
 c 192.676 282.977 192.559 284.414 193.09 285.961 c 193.637 287.547 194.676
 288.707 196.07 289.246 c 197.387 289.762 198.609 289.672 200.75 288.938
 c 205.262 287.383 l 199.867 271.73 l 199.785 280.906 m 201.402 285.609 
l 200.109 286.051 l 198.754 286.52 197.965 286.625 197.359 286.387 c 196.711
 286.156 196.246 285.633 195.984 284.867 c 195.414 283.215 196.121 282.168
 198.363 281.395 c 199.785 280.906 l S Q
176.973 14.492 m 181.84 15.277 185.004 19.578 184.234 24.355 c 183.473 
29.066 179.066 32.187 174.27 31.414 c 169.516 30.648 166.438 26.363 167.207
 21.585 c 167.961 16.921 172.309 13.742 176.973 14.492 c 176.547 17.421 
m 173.52 16.933 170.758 18.984 170.254 22.124 c 169.746 25.261 171.664 27.999
 174.762 28.499 c 177.859 28.999 180.684 26.956 181.18 23.863 c 181.691 
20.699 179.688 17.925 176.547 17.421 c f
q 1 0 0 -1 0 309.714294 cm
176.973 295.223 m 181.84 294.438 185.004 290.137 184.234 285.359 c 183.473
 280.648 179.066 277.527 174.27 278.301 c 169.516 279.066 166.438 283.352
 167.207 288.129 c 167.961 292.793 172.309 295.973 176.973 295.223 c 176.547
 292.293 m 173.52 292.781 170.758 290.73 170.254 287.59 c 169.746 284.453
 171.664 281.715 174.762 281.215 c 177.859 280.715 180.684 282.758 181.18
 285.852 c 181.691 289.016 179.688 291.789 176.547 292.293 c S Q
153.219 12.98 m 153.246 24.695 l 153.25 26.148 153.746 26.867 154.73 26.863
 c 155.492 26.863 155.984 26.433 156.184 25.605 c 159.254 25.597 l 159.121
 26.898 158.875 27.57 158.207 28.312 c 157.359 29.253 156.059 29.816 154.672
 29.82 c 151.895 29.828 150.188 27.902 150.18 24.789 c 150.152 12.984 l 
153.219 12.976 l f
q 1 0 0 -1 0 309.714294 cm
153.219 296.734 m 153.246 285.02 l 153.25 283.566 153.746 282.848 154.73
 282.852 c 155.492 282.852 155.984 283.281 156.184 284.109 c 159.254 284.117
 l 159.121 282.816 158.875 282.145 158.207 281.402 c 157.359 280.461 156.059
 279.898 154.672 279.895 c 151.895 279.887 150.188 281.812 150.18 284.926
 c 150.152 296.73 l 153.219 296.738 l S Q
142.117 30.054 m 133.301 31.222 l 132.918 28.312 l 138.691 27.55 l 138.184
 23.73 l 132.656 24.46 l 132.27 21.554 l 137.801 20.82 l 137.289 16.956 
l 131.516 17.722 l 131.129 14.812 l 139.945 13.644 l 142.117 30.054 l f
q 1 0 0 -1 0 309.714294 cm
142.117 279.66 m 133.301 278.492 l 132.918 281.402 l 138.691 282.164 l 
138.184 285.984 l 132.656 285.254 l 132.27 288.16 l 137.801 288.895 l 137.289
 292.758 l 131.516 291.992 l 131.129 294.902 l 139.945 296.07 l 142.117 
279.66 l S Q
112.504 31.722 m 114.195 32.687 115.465 32.871 116.992 32.417 c 119.91 
31.546 121.586 28.382 120.699 25.417 c 120.316 24.132 119.414 22.906 118.316
 22.203 c 117.012 21.355 115.457 21.164 113.848 21.644 c 112 22.195 110.934
 23.167 110.277 24.882 c 106.992 25.863 l 107.207 24.3 107.539 23.382 108.352
 22.183 c 109.457 20.566 111.133 19.367 113.066 18.789 c 117.551 17.453 
122.316 20.027 123.656 24.515 c 125.02 29.085 122.406 33.886 117.773 35.269
 c 114.531 36.234 111.16 35.277 109.051 32.749 c 112.504 31.722 l f
q 1 0 0 -1 0 309.714294 cm
112.504 277.992 m 114.195 277.027 115.465 276.844 116.992 277.297 c 119.91
 278.168 121.586 281.332 120.699 284.297 c 120.316 285.582 119.414 286.809
 118.316 287.512 c 117.012 288.359 115.457 288.551 113.848 288.07 c 112 
287.52 110.934 286.547 110.277 284.832 c 106.992 283.852 l 107.207 285.414
 107.539 286.332 108.352 287.531 c 109.457 289.148 111.133 290.348 113.066
 290.926 c 117.551 292.262 122.316 289.688 123.656 285.199 c 125.02 280.629
 122.406 275.828 117.773 274.445 c 114.531 273.48 111.16 274.438 109.051
 276.965 c 112.504 277.992 l S Q
102.148 40.847 m 99.367 42.148 l 93.59 29.816 l 90.809 31.117 l 89.566 
28.46 l 97.902 24.554 l 99.148 27.21 l 96.367 28.515 l 102.148 40.847 l f
q 1 0 0 -1 0 309.714294 cm
102.148 268.867 m 99.367 267.566 l 93.59 279.898 l 90.809 278.598 l 89.566
 281.254 l 97.902 285.16 l 99.148 282.504 l 96.367 281.199 l 102.148 268.867
 l S Q
173.605 234.32 m 173.539 244.16 166.793 249.871 155.234 249.871 c 144.227
 249.871 137.418 244.23 137.418 235.148 c 137.418 229.023 140.652 225.171
 147.254 223.453 c 159.707 220.148 l 166.039 218.499 168.926 215.953 168.926
 212.031 c 168.926 209.347 167.484 206.597 165.352 205.081 c 163.355 203.706
 160.191 202.949 156.129 202.949 c 150.695 202.949 146.98 204.257 144.574
 207.144 c 142.715 209.347 141.891 211.753 141.957 214.851 c 135.902 214.851
 l 135.973 210.242 136.867 207.214 138.863 204.464 c 142.301 199.785 148.082
 197.308 155.719 197.308 c 161.703 197.308 166.59 198.683 169.82 201.16 
c 173.191 203.843 175.324 208.316 175.324 212.648 c 175.324 218.843 171.473
 223.382 164.66 225.242 c 152.07 228.613 l 146.016 230.261 143.816 232.191
 143.816 236.042 c 143.816 241.132 148.289 244.503 155.031 244.503 c 163.012
 244.503 167.484 240.859 167.551 234.32 c 173.605 234.32 l f
5.04 w
q 1 0 0 -1 0 309.714294 cm
173.605 75.395 m 173.539 65.555 166.793 59.844 155.234 59.844 c 144.227
 59.844 137.418 65.484 137.418 74.566 c 137.418 80.691 140.652 84.543 147.254
 86.262 c 159.707 89.566 l 166.039 91.215 168.926 93.762 168.926 97.684 
c 168.926 100.367 167.484 103.117 165.352 104.633 c 163.355 106.008 160.191
 106.766 156.129 106.766 c 150.695 106.766 146.98 105.457 144.574 102.57
 c 142.715 100.367 141.891 97.961 141.957 94.863 c 135.902 94.863 l 135.973
 99.473 136.867 102.5 138.863 105.25 c 142.301 109.93 148.082 112.406 155.719
 112.406 c 161.703 112.406 166.59 111.031 169.82 108.555 c 173.191 105.871
 175.324 101.398 175.324 97.066 c 175.324 90.871 171.473 86.332 164.66 84.473
 c 152.07 81.102 l 146.016 79.453 143.816 77.523 143.816 73.672 c 143.816
 68.582 148.289 65.211 155.031 65.211 c 163.012 65.211 167.484 68.855 167.551
 75.395 c 173.605 75.395 l S Q
80.602 185.82 m 74.203 185.82 l 74.203 135.664 l 105.367 135.664 l 105.367
 141.304 l 80.602 141.304 l 80.602 185.82 l f
q 1 0 0 -1 0 309.714294 cm
80.602 123.895 m 74.203 123.895 l 74.203 174.051 l 105.367 174.051 l 105.367
 168.41 l 80.602 168.41 l 80.602 123.895 l S Q
236.516 150.73 m 241.676 135.664 l 248.832 135.664 l 231.219 185.82 l 222.965
 185.82 l 205.074 135.664 l 211.887 135.664 l 217.184 150.73 l 236.516 150.73
 l 234.73 156.097 m 218.766 156.097 l 227.023 178.937 l 234.73 156.097 l
 f
q 1 0 0 -1 0 309.714294 cm
236.516 158.984 m 241.676 174.051 l 248.832 174.051 l 231.219 123.895 l
 222.965 123.895 l 205.074 174.051 l 211.887 174.051 l 217.184 158.984 l
 236.516 158.984 l 234.73 153.617 m 218.766 153.617 l 227.023 130.777 l 
234.73 153.617 l S Q
145.262 88.3 m 161.016 88.3 l 164.938 88.3 168.031 89.472 170.715 91.878
 c 173.742 94.632 175.051 97.867 175.051 102.476 c 175.051 111.902 169.477
 117.199 159.57 117.199 c 138.863 117.199 l 138.863 67.042 l 145.262 67.042
 l 145.262 88.3 l 145.262 93.945 m 145.262 111.558 l 158.609 111.558 l 164.73
 111.558 168.379 108.253 168.379 102.749 c 168.379 97.246 164.73 93.945 
158.609 93.945 c 145.262 93.945 l f
q 1 0 0 -1 0 309.714294 cm
145.262 221.414 m 161.016 221.414 l 164.938 221.414 168.031 220.242 170.715
 217.836 c 173.742 215.082 175.051 211.848 175.051 207.238 c 175.051 197.812
 169.477 192.516 159.57 192.516 c 138.863 192.516 l 138.863 242.672 l 145.262
 242.672 l 145.262 221.414 l 145.262 215.77 m 145.262 198.156 l 158.609 
198.156 l 164.73 198.156 168.379 201.461 168.379 206.965 c 168.379 212.469
 164.73 215.77 158.609 215.77 c 145.262 215.77 l S Q
153.281 154.914 m 152.996 155.468 153.215 156.148 153.77 156.433 c 154.324
 156.718 155.004 156.499 155.289 155.945 c 155.574 155.39 155.355 154.71
 154.801 154.425 c 154.246 154.14 153.566 154.359 153.281 154.914 c h
153.281 154.914 m f*
4.8 w
q 1 0 0 -1 0 309.714294 cm
60.996 246.254 m 249.566 57.684 l S Q
q 1 0 0 -1 0 309.714294 cm
249.566 246.254 m 60.996 57.684 l S Q
Q Q
showpage
%%Trailer
end restore
%%EOF
